{
  "template": "pandoc-latex-template/eisvogel.tex",
  "options": [
    "--listings",
    "--metadata=listings:True",
    "-V listings=True",
    "--metadata=codeBlockCaptions:True",
    "-V colorlinks=true",
    "-V urlcolor='[HTML]{00786D}'",
    "-V linkcolor='[HTML]{00786D}'",
    "-V filecolor='[HTML]{00786D}'",
    "-V toccolor='darkgray'",
    "-V citecolor='darkgray'",
    "--csl=apa.csl",
    "-V footnotes-pretty=true",
    "--include-before-body=handout_title.tex",
    "-V footer-left='{\\color[HTML]{DDDDDD}made with pandemics.gitlab.io}'",
    "-V header-center=''",
    "-V header-right='\\thedate'",
    "-V header-left='\\theauthor'",
    "-V footer-center=''",
    "-V footer-right='\\thepage~/ \\pageref*{LastPage}'",
    "--include-in-header=header_handout.tex",
    "--metadata-file=meta_handout.yaml",
    "--include-in-header=awesomebox.tex"
  ]
}
